module gitlab.com/wongidle/mutiples/v2

go 1.21

require (
	github.com/go-chi/chi/v5 v5.0.12
	github.com/go-jimu/components v0.5.4
	github.com/go-playground/validator/v10 v10.19.0
	github.com/go-sql-driver/mysql v1.8.1
	github.com/google/uuid v1.6.0
	github.com/jinzhu/copier v0.4.0
	github.com/monoculum/formam/v3 v3.6.0
	github.com/pelletier/go-toml/v2 v2.2.1
	github.com/uptrace/bun v1.2.1
	github.com/uptrace/bun/dialect/mysqldialect v1.2.1
	github.com/uptrace/bun/extra/bunslog v1.2.1
	go.uber.org/fx v1.21.0
	golang.org/x/crypto v0.22.0
	gopkg.in/yaml.v3 v3.0.1
)

require (
	dario.cat/mergo v1.0.0 // indirect
	filippo.io/edwards25519 v1.1.0 // indirect
	github.com/fsnotify/fsnotify v1.7.0 // indirect
	github.com/gabriel-vasile/mimetype v1.4.3 // indirect
	github.com/go-playground/locales v0.14.1 // indirect
	github.com/go-playground/universal-translator v0.18.1 // indirect
	github.com/jinzhu/inflection v1.0.0 // indirect
	github.com/leodido/go-urn v1.4.0 // indirect
	github.com/monoculum/formam v3.5.5+incompatible // indirect
	github.com/tmthrgd/go-hex v0.0.0-20190904060850-447a3041c3bc // indirect
	github.com/vmihailenco/msgpack/v5 v5.4.1 // indirect
	github.com/vmihailenco/tagparser/v2 v2.0.0 // indirect
	go.uber.org/dig v1.17.1 // indirect
	go.uber.org/multierr v1.11.0 // indirect
	go.uber.org/zap v1.27.0 // indirect
	golang.org/x/mod v0.17.0 // indirect
	golang.org/x/net v0.24.0 // indirect
	golang.org/x/sys v0.19.0 // indirect
	golang.org/x/text v0.14.0 // indirect
	gopkg.in/natefinch/lumberjack.v2 v2.2.1 // indirect
)
